^C:\USERS\ЯРОСЛАВ\DESKTOP\MW2\KURS2\CODE\KAMENNOV_KURS\KAMENNOV_KURS\TESTCLASS.H
C:\USERS\ЯРОСЛАВ\DESKTOP\MW2\KURS2\CODE\KAMENNOV_KURS\KAMENNOV_KURS\GENERATEDFILES\RELEASE\MOC_TESTCLASS.CPP
^C:\USERS\ЯРОСЛАВ\DESKTOP\MW2\KURS2\CODE\KAMENNOV_KURS\KAMENNOV_KURS\STANFORDWORD.H
C:\USERS\ЯРОСЛАВ\DESKTOP\MW2\KURS2\CODE\KAMENNOV_KURS\KAMENNOV_KURS\GENERATEDFILES\RELEASE\MOC_STANFORDWORD.CPP
^C:\USERS\ЯРОСЛАВ\DESKTOP\MW2\KURS2\CODE\KAMENNOV_KURS\KAMENNOV_KURS\TEXTTREE.H
C:\USERS\ЯРОСЛАВ\DESKTOP\MW2\KURS2\CODE\KAMENNOV_KURS\KAMENNOV_KURS\GENERATEDFILES\RELEASE\MOC_TEXTTREE.CPP
^C:\USERS\ЯРОСЛАВ\DESKTOP\MW2\KURS2\CODE\KAMENNOV_KURS\KAMENNOV_KURS\PERSON.H
C:\USERS\ЯРОСЛАВ\DESKTOP\MW2\KURS2\CODE\KAMENNOV_KURS\KAMENNOV_KURS\GENERATEDFILES\RELEASE\MOC_PERSON.CPP
^D:\OS\KAMENNOV_KURS\KAMENNOV_KURS\STANFORDWORD.H
D:\OS\KAMENNOV_KURS\KAMENNOV_KURS\GENERATEDFILES\RELEASE\MOC_STANFORDWORD.CPP
^D:\OS\KAMENNOV_KURS\KAMENNOV_KURS\PERSON.H
D:\OS\KAMENNOV_KURS\KAMENNOV_KURS\GENERATEDFILES\RELEASE\MOC_PERSON.CPP
^D:\OS\KAMENNOV_KURS\KAMENNOV_KURS\SENTENCE.H
D:\OS\KAMENNOV_KURS\KAMENNOV_KURS\GENERATEDFILES\RELEASE\MOC_SENTENCE.CPP
^D:\OS\KAMENNOV_KURS\KAMENNOV_KURS\TEXTTREE.H
D:\OS\KAMENNOV_KURS\KAMENNOV_KURS\GENERATEDFILES\RELEASE\MOC_TEXTTREE.CPP
^D:\OS\KAMENNOV_KURS\KAMENNOV_KURS\TESTCLASS.H
D:\OS\KAMENNOV_KURS\KAMENNOV_KURS\GENERATEDFILES\RELEASE\MOC_TESTCLASS.CPP
^C:\USERS\ЯРОСЛАВ\DESKTOP\KURS\ИСХОДНЫЙ ФАЙЛ ПРОЕКТА\KAMENNOV_KURS\KAMENNOV_KURS\TESTCLASS.H
C:\USERS\ЯРОСЛАВ\DESKTOP\KURS\ИСХОДНЫЙ ФАЙЛ ПРОЕКТА\KAMENNOV_KURS\KAMENNOV_KURS\GENERATEDFILES\RELEASE\MOC_TESTCLASS.CPP
^C:\USERS\ЯРОСЛАВ\DESKTOP\KURS\ИСХОДНЫЙ ФАЙЛ ПРОЕКТА\KAMENNOV_KURS\KAMENNOV_KURS\STANFORDWORD.H
C:\USERS\ЯРОСЛАВ\DESKTOP\KURS\ИСХОДНЫЙ ФАЙЛ ПРОЕКТА\KAMENNOV_KURS\KAMENNOV_KURS\GENERATEDFILES\RELEASE\MOC_STANFORDWORD.CPP
^C:\USERS\ЯРОСЛАВ\DESKTOP\KURS\ИСХОДНЫЙ ФАЙЛ ПРОЕКТА\KAMENNOV_KURS\KAMENNOV_KURS\PERSON.H
C:\USERS\ЯРОСЛАВ\DESKTOP\KURS\ИСХОДНЫЙ ФАЙЛ ПРОЕКТА\KAMENNOV_KURS\KAMENNOV_KURS\GENERATEDFILES\RELEASE\MOC_PERSON.CPP
^C:\USERS\ЯРОСЛАВ\DESKTOP\KURS\ИСХОДНЫЙ ФАЙЛ ПРОЕКТА\KAMENNOV_KURS\KAMENNOV_KURS\SENTENCE.H
C:\USERS\ЯРОСЛАВ\DESKTOP\KURS\ИСХОДНЫЙ ФАЙЛ ПРОЕКТА\KAMENNOV_KURS\KAMENNOV_KURS\GENERATEDFILES\RELEASE\MOC_SENTENCE.CPP
^C:\USERS\ЯРОСЛАВ\DESKTOP\KURS\ИСХОДНЫЙ ФАЙЛ ПРОЕКТА\KAMENNOV_KURS\KAMENNOV_KURS\TEXTTREE.H
C:\USERS\ЯРОСЛАВ\DESKTOP\KURS\ИСХОДНЫЙ ФАЙЛ ПРОЕКТА\KAMENNOV_KURS\KAMENNOV_KURS\GENERATEDFILES\RELEASE\MOC_TEXTTREE.CPP
