^C:\USERS\ЯРОСЛАВ\DESKTOP\MW2\KURS2\CODE\KAMENNOV_KURS\KAMENNOV_KURS\TESTCLASS.H
"C:\Qt\Qt5.5.1\5.5\msvc2010\bin\moc.exe"  "C:\Users\Ярослав\Desktop\MW2\kurs2\code\Kamennov_Kurs\Kamennov_Kurs\testclass.h" -o ".\GeneratedFiles\Debug\moc_testclass.cpp"  -DUNICODE -DWIN32 -DWIN64 -DQT_DLL -DQT_CORE_LIB -DQT_TESTLIB_LIB -DQT_XML_LIB -DQT_XMLPATTERNS_LIB "-I." "-IC:\Qt\Qt5.5.1\5.5\msvc2010\include" "-I.\GeneratedFiles\Debug\." "-IC:\Qt\Qt5.5.1\5.5\msvc2010\include\QtCore" "-IC:\Qt\Qt5.5.1\5.5\msvc2010\include\QtTest" "-IC:\Qt\Qt5.5.1\5.5\msvc2010\include\QtXml" "-IC:\Qt\Qt5.5.1\5.5\msvc2010\include\QtXmlPatterns"
^C:\USERS\ЯРОСЛАВ\DESKTOP\MW2\KURS2\CODE\KAMENNOV_KURS\KAMENNOV_KURS\STANFORDWORD.H
"C:\Qt\Qt5.5.1\5.5\msvc2010\bin\moc.exe"  "C:\Users\Ярослав\Desktop\MW2\kurs2\code\Kamennov_Kurs\Kamennov_Kurs\stanfordword.h" -o ".\GeneratedFiles\Debug\moc_stanfordword.cpp"  -DUNICODE -DWIN32 -DWIN64 -DQT_DLL -DQT_CORE_LIB -DQT_TESTLIB_LIB -DQT_XML_LIB -DQT_XMLPATTERNS_LIB "-I." "-IC:\Qt\Qt5.5.1\5.5\msvc2010\include" "-I.\GeneratedFiles\Debug\." "-IC:\Qt\Qt5.5.1\5.5\msvc2010\include\QtCore" "-IC:\Qt\Qt5.5.1\5.5\msvc2010\include\QtTest" "-IC:\Qt\Qt5.5.1\5.5\msvc2010\include\QtXml" "-IC:\Qt\Qt5.5.1\5.5\msvc2010\include\QtXmlPatterns"
^C:\USERS\ЯРОСЛАВ\DESKTOP\MW2\KURS2\CODE\KAMENNOV_KURS\KAMENNOV_KURS\TEXTTREE.H
"C:\Qt\Qt5.5.1\5.5\msvc2010\bin\moc.exe"  "C:\Users\Ярослав\Desktop\MW2\kurs2\code\Kamennov_Kurs\Kamennov_Kurs\texttree.h" -o ".\GeneratedFiles\Debug\moc_texttree.cpp"  -DUNICODE -DWIN32 -DWIN64 -DQT_DLL -DQT_CORE_LIB -DQT_TESTLIB_LIB -DQT_XML_LIB -DQT_XMLPATTERNS_LIB "-I." "-IC:\Qt\Qt5.5.1\5.5\msvc2010\include" "-I.\GeneratedFiles\Debug\." "-IC:\Qt\Qt5.5.1\5.5\msvc2010\include\QtCore" "-IC:\Qt\Qt5.5.1\5.5\msvc2010\include\QtTest" "-IC:\Qt\Qt5.5.1\5.5\msvc2010\include\QtXml" "-IC:\Qt\Qt5.5.1\5.5\msvc2010\include\QtXmlPatterns"
^C:\USERS\ЯРОСЛАВ\DESKTOP\MW2\KURS2\CODE\KAMENNOV_KURS\KAMENNOV_KURS\PERSON.H
"C:\Qt\Qt5.5.1\5.5\msvc2010\bin\moc.exe"  "C:\Users\Ярослав\Desktop\MW2\kurs2\code\Kamennov_Kurs\Kamennov_Kurs\person.h" -o ".\GeneratedFiles\Debug\moc_person.cpp"  -DUNICODE -DWIN32 -DWIN64 -DQT_DLL -DQT_CORE_LIB -DQT_TESTLIB_LIB -DQT_XML_LIB -DQT_XMLPATTERNS_LIB "-I." "-IC:\Qt\Qt5.5.1\5.5\msvc2010\include" "-I.\GeneratedFiles\Debug\." "-IC:\Qt\Qt5.5.1\5.5\msvc2010\include\QtCore" "-IC:\Qt\Qt5.5.1\5.5\msvc2010\include\QtTest" "-IC:\Qt\Qt5.5.1\5.5\msvc2010\include\QtXml" "-IC:\Qt\Qt5.5.1\5.5\msvc2010\include\QtXmlPatterns"
^D:\OS\KAMENNOV_KURS\KAMENNOV_KURS\TESTCLASS.H
"C:\Qt\Qt5.5.1\5.5\msvc2010\bin\moc.exe"  "D:\OS\Kamennov_Kurs\Kamennov_Kurs\testclass.h" -o ".\GeneratedFiles\Debug\moc_testclass.cpp"  -DUNICODE -DWIN32 -DWIN64 -DQT_DLL -DQT_CORE_LIB -DQT_TESTLIB_LIB -DQT_XML_LIB -DQT_XMLPATTERNS_LIB "-I." "-IC:\Qt\Qt5.5.1\5.5\msvc2010\include" "-I.\GeneratedFiles\Debug\." "-IC:\Qt\Qt5.5.1\5.5\msvc2010\include\QtCore" "-IC:\Qt\Qt5.5.1\5.5\msvc2010\include\QtTest" "-IC:\Qt\Qt5.5.1\5.5\msvc2010\include\QtXml" "-IC:\Qt\Qt5.5.1\5.5\msvc2010\include\QtXmlPatterns"
^D:\OS\KAMENNOV_KURS\KAMENNOV_KURS\STANFORDWORD.H
"C:\Qt\Qt5.5.1\5.5\msvc2010\bin\moc.exe"  "D:\OS\Kamennov_Kurs\Kamennov_Kurs\stanfordword.h" -o ".\GeneratedFiles\Debug\moc_stanfordword.cpp"  -DUNICODE -DWIN32 -DWIN64 -DQT_DLL -DQT_CORE_LIB -DQT_TESTLIB_LIB -DQT_XML_LIB -DQT_XMLPATTERNS_LIB "-I." "-IC:\Qt\Qt5.5.1\5.5\msvc2010\include" "-I.\GeneratedFiles\Debug\." "-IC:\Qt\Qt5.5.1\5.5\msvc2010\include\QtCore" "-IC:\Qt\Qt5.5.1\5.5\msvc2010\include\QtTest" "-IC:\Qt\Qt5.5.1\5.5\msvc2010\include\QtXml" "-IC:\Qt\Qt5.5.1\5.5\msvc2010\include\QtXmlPatterns"
^D:\OS\KAMENNOV_KURS\KAMENNOV_KURS\TEXTTREE.H
"C:\Qt\Qt5.5.1\5.5\msvc2010\bin\moc.exe"  "D:\OS\Kamennov_Kurs\Kamennov_Kurs\texttree.h" -o ".\GeneratedFiles\Debug\moc_texttree.cpp"  -DUNICODE -DWIN32 -DWIN64 -DQT_DLL -DQT_CORE_LIB -DQT_TESTLIB_LIB -DQT_XML_LIB -DQT_XMLPATTERNS_LIB "-I." "-IC:\Qt\Qt5.5.1\5.5\msvc2010\include" "-I.\GeneratedFiles\Debug\." "-IC:\Qt\Qt5.5.1\5.5\msvc2010\include\QtCore" "-IC:\Qt\Qt5.5.1\5.5\msvc2010\include\QtTest" "-IC:\Qt\Qt5.5.1\5.5\msvc2010\include\QtXml" "-IC:\Qt\Qt5.5.1\5.5\msvc2010\include\QtXmlPatterns"
^D:\OS\KAMENNOV_KURS\KAMENNOV_KURS\PERSON.H
"C:\Qt\Qt5.5.1\5.5\msvc2010\bin\moc.exe"  "D:\OS\Kamennov_Kurs\Kamennov_Kurs\person.h" -o ".\GeneratedFiles\Debug\moc_person.cpp"  -DUNICODE -DWIN32 -DWIN64 -DQT_DLL -DQT_CORE_LIB -DQT_TESTLIB_LIB -DQT_XML_LIB -DQT_XMLPATTERNS_LIB "-I." "-IC:\Qt\Qt5.5.1\5.5\msvc2010\include" "-I.\GeneratedFiles\Debug\." "-IC:\Qt\Qt5.5.1\5.5\msvc2010\include\QtCore" "-IC:\Qt\Qt5.5.1\5.5\msvc2010\include\QtTest" "-IC:\Qt\Qt5.5.1\5.5\msvc2010\include\QtXml" "-IC:\Qt\Qt5.5.1\5.5\msvc2010\include\QtXmlPatterns"
^D:\OS\KAMENNOV_KURS\KAMENNOV_KURS\SENTENCE.H
"C:\Qt\Qt5.5.1\5.5\msvc2010\bin\moc.exe"  "D:\OS\Kamennov_Kurs\Kamennov_Kurs\sentence.h" -o ".\GeneratedFiles\Debug\moc_sentence.cpp"  -DUNICODE -DWIN32 -DWIN64 -DQT_DLL -DQT_CORE_LIB -DQT_TESTLIB_LIB -DQT_XML_LIB -DQT_XMLPATTERNS_LIB "-I." "-IC:\Qt\Qt5.5.1\5.5\msvc2010\include" "-I.\GeneratedFiles\Debug\." "-IC:\Qt\Qt5.5.1\5.5\msvc2010\include\QtCore" "-IC:\Qt\Qt5.5.1\5.5\msvc2010\include\QtTest" "-IC:\Qt\Qt5.5.1\5.5\msvc2010\include\QtXml" "-IC:\Qt\Qt5.5.1\5.5\msvc2010\include\QtXmlPatterns"
^C:\USERS\ЯРОСЛАВ\DESKTOP\KURS\ИСХОДНЫЙ ФАЙЛ ПРОЕКТА\KAMENNOV_KURS\KAMENNOV_KURS\TESTCLASS.H
"C:\Qt\Qt5.5.1\5.5\msvc2010\bin\moc.exe"  "C:\Users\Ярослав\Desktop\Kurs\Исходный файл проекта\Kamennov_Kurs\Kamennov_Kurs\testclass.h" -o ".\GeneratedFiles\Debug\moc_testclass.cpp"  -DUNICODE -DWIN32 -DWIN64 -DQT_DLL -DQT_CORE_LIB -DQT_TESTLIB_LIB -DQT_XML_LIB -DQT_XMLPATTERNS_LIB "-I." "-IC:\Qt\Qt5.5.1\5.5\msvc2010\include" "-I.\GeneratedFiles\Debug\." "-IC:\Qt\Qt5.5.1\5.5\msvc2010\include\QtCore" "-IC:\Qt\Qt5.5.1\5.5\msvc2010\include\QtTest" "-IC:\Qt\Qt5.5.1\5.5\msvc2010\include\QtXml" "-IC:\Qt\Qt5.5.1\5.5\msvc2010\include\QtXmlPatterns"
^C:\USERS\ЯРОСЛАВ\DESKTOP\KURS\ИСХОДНЫЙ ФАЙЛ ПРОЕКТА\KAMENNOV_KURS\KAMENNOV_KURS\STANFORDWORD.H
"C:\Qt\Qt5.5.1\5.5\msvc2010\bin\moc.exe"  "C:\Users\Ярослав\Desktop\Kurs\Исходный файл проекта\Kamennov_Kurs\Kamennov_Kurs\stanfordword.h" -o ".\GeneratedFiles\Debug\moc_stanfordword.cpp"  -DUNICODE -DWIN32 -DWIN64 -DQT_DLL -DQT_CORE_LIB -DQT_TESTLIB_LIB -DQT_XML_LIB -DQT_XMLPATTERNS_LIB "-I." "-IC:\Qt\Qt5.5.1\5.5\msvc2010\include" "-I.\GeneratedFiles\Debug\." "-IC:\Qt\Qt5.5.1\5.5\msvc2010\include\QtCore" "-IC:\Qt\Qt5.5.1\5.5\msvc2010\include\QtTest" "-IC:\Qt\Qt5.5.1\5.5\msvc2010\include\QtXml" "-IC:\Qt\Qt5.5.1\5.5\msvc2010\include\QtXmlPatterns"
^C:\USERS\ЯРОСЛАВ\DESKTOP\KURS\ИСХОДНЫЙ ФАЙЛ ПРОЕКТА\KAMENNOV_KURS\KAMENNOV_KURS\PERSON.H
"C:\Qt\Qt5.5.1\5.5\msvc2010\bin\moc.exe"  "C:\Users\Ярослав\Desktop\Kurs\Исходный файл проекта\Kamennov_Kurs\Kamennov_Kurs\person.h" -o ".\GeneratedFiles\Debug\moc_person.cpp"  -DUNICODE -DWIN32 -DWIN64 -DQT_DLL -DQT_CORE_LIB -DQT_TESTLIB_LIB -DQT_XML_LIB -DQT_XMLPATTERNS_LIB "-I." "-IC:\Qt\Qt5.5.1\5.5\msvc2010\include" "-I.\GeneratedFiles\Debug\." "-IC:\Qt\Qt5.5.1\5.5\msvc2010\include\QtCore" "-IC:\Qt\Qt5.5.1\5.5\msvc2010\include\QtTest" "-IC:\Qt\Qt5.5.1\5.5\msvc2010\include\QtXml" "-IC:\Qt\Qt5.5.1\5.5\msvc2010\include\QtXmlPatterns"
^C:\USERS\ЯРОСЛАВ\DESKTOP\KURS\ИСХОДНЫЙ ФАЙЛ ПРОЕКТА\KAMENNOV_KURS\KAMENNOV_KURS\SENTENCE.H
"C:\Qt\Qt5.5.1\5.5\msvc2010\bin\moc.exe"  "C:\Users\Ярослав\Desktop\Kurs\Исходный файл проекта\Kamennov_Kurs\Kamennov_Kurs\sentence.h" -o ".\GeneratedFiles\Debug\moc_sentence.cpp"  -DUNICODE -DWIN32 -DWIN64 -DQT_DLL -DQT_CORE_LIB -DQT_TESTLIB_LIB -DQT_XML_LIB -DQT_XMLPATTERNS_LIB "-I." "-IC:\Qt\Qt5.5.1\5.5\msvc2010\include" "-I.\GeneratedFiles\Debug\." "-IC:\Qt\Qt5.5.1\5.5\msvc2010\include\QtCore" "-IC:\Qt\Qt5.5.1\5.5\msvc2010\include\QtTest" "-IC:\Qt\Qt5.5.1\5.5\msvc2010\include\QtXml" "-IC:\Qt\Qt5.5.1\5.5\msvc2010\include\QtXmlPatterns"
^C:\USERS\ЯРОСЛАВ\DESKTOP\KURS\ИСХОДНЫЙ ФАЙЛ ПРОЕКТА\KAMENNOV_KURS\KAMENNOV_KURS\TEXTTREE.H
"C:\Qt\Qt5.5.1\5.5\msvc2010\bin\moc.exe"  "C:\Users\Ярослав\Desktop\Kurs\Исходный файл проекта\Kamennov_Kurs\Kamennov_Kurs\texttree.h" -o ".\GeneratedFiles\Debug\moc_texttree.cpp"  -DUNICODE -DWIN32 -DWIN64 -DQT_DLL -DQT_CORE_LIB -DQT_TESTLIB_LIB -DQT_XML_LIB -DQT_XMLPATTERNS_LIB "-I." "-IC:\Qt\Qt5.5.1\5.5\msvc2010\include" "-I.\GeneratedFiles\Debug\." "-IC:\Qt\Qt5.5.1\5.5\msvc2010\include\QtCore" "-IC:\Qt\Qt5.5.1\5.5\msvc2010\include\QtTest" "-IC:\Qt\Qt5.5.1\5.5\msvc2010\include\QtXml" "-IC:\Qt\Qt5.5.1\5.5\msvc2010\include\QtXmlPatterns"
